test/vcd/litescope.vcd
$date
	2017-07-06 17:21
$end
$timescale 1ps $end
$scope 1ps $end
$var wire 7 ! sdphy_sttmpdata $end
$var wire 4 " sdphy_data_i2 $end
$var wire 3 # sdphy_stsel $end
$var wire 1 $ sdphy_sink_valid $end
$var wire 8 % sdphy_sink_payload_data $end
$var wire 1 & sdphy_sink_last $end
$var wire 1 ' sdphy_sink_ready $end
$var wire 1 ( capture_clk $end
$unscope  $end
$enddefinitions  $end
$dumpvars
bxxxxxxx !
bxxxx "
bxxx #
bx $
bxxxxxxxx %
bx &
bx '
bx (
$end
#0
b0000000 !
b1010 "
b000 #
b1 $
b10100111 %
b0 &
b0 '
b1 (
#1
b0000000 !
b1010 "
b000 #
b1 $
b10100111 %
b0 &
b0 '
b0 (
#2
b0000000 !
b0110 "
b000 #
b1 $
b10100111 %
b0 &
b1 '
b1 (
#3
b0000000 !
b0110 "
b000 #
b1 $
b10100111 %
b0 &
b1 '
b0 (
#4
b0000000 !
b1010 "
b000 #
b1 $
b10101000 %
b0 &
b0 '
b1 (
#5
b0000000 !
b1010 "
b000 #
b1 $
b10101000 %
b0 &
b0 '
b0 (
#6
b0000000 !
b0111 "
b000 #
b1 $
b10101000 %
b0 &
b1 '
b1 (
#7
b0000000 !
b0111 "
b000 #
b1 $
b10101000 %
b0 &
b1 '
b0 (
#8
b0000000 !
b1010 "
b000 #
b1 $
b10101001 %
b0 &
b0 '
b1 (
#9
b0000000 !
b1010 "
b000 #
b1 $
b10101001 %
b0 &
b0 '
b0 (
#10
b0000000 !
b1000 "
b000 #
b1 $
b10101001 %
b0 &
b1 '
b1 (
#11
b0000000 !
b1000 "
b000 #
b1 $
b10101001 %
b0 &
b1 '
b0 (
#12
b0000000 !
b1010 "
b000 #
b1 $
b10101010 %
b0 &
b0 '
b1 (
#13
b0000000 !
b1010 "
b000 #
b1 $
b10101010 %
b0 &
b0 '
b0 (
#14
b0000000 !
b1001 "
b000 #
b1 $
b10101010 %
b0 &
b1 '
b1 (
#15
b0000000 !
b1001 "
b000 #
b1 $
b10101010 %
b0 &
b1 '
b0 (
#16
b0000000 !
b1010 "
b000 #
b1 $
b10101011 %
b0 &
b0 '
b1 (
#17
b0000000 !
b1010 "
b000 #
b1 $
b10101011 %
b0 &
b0 '
b0 (
#18
b0000000 !
b1010 "
b000 #
b1 $
b10101011 %
b0 &
b1 '
b1 (
#19
b0000000 !
b1010 "
b000 #
b1 $
b10101011 %
b0 &
b1 '
b0 (
#20
b0000000 !
b1010 "
b000 #
b1 $
b10101100 %
b0 &
b0 '
b1 (
#21
b0000000 !
b1010 "
b000 #
b1 $
b10101100 %
b0 &
b0 '
b0 (
#22
b0000000 !
b1011 "
b000 #
b1 $
b10101100 %
b0 &
b1 '
b1 (
#23
b0000000 !
b1011 "
b000 #
b1 $
b10101100 %
b0 &
b1 '
b0 (
#24
b0000000 !
b1010 "
b000 #
b1 $
b10101101 %
b0 &
b0 '
b1 (
#25
b0000000 !
b1010 "
b000 #
b1 $
b10101101 %
b0 &
b0 '
b0 (
#26
b0000000 !
b1100 "
b000 #
b1 $
b10101101 %
b0 &
b1 '
b1 (
#27
b0000000 !
b1100 "
b000 #
b1 $
b10101101 %
b0 &
b1 '
b0 (
#28
b0000000 !
b1010 "
b000 #
b1 $
b10101110 %
b0 &
b0 '
b1 (
#29
b0000000 !
b1010 "
b000 #
b1 $
b10101110 %
b0 &
b0 '
b0 (
#30
b0000000 !
b1101 "
b000 #
b1 $
b10101110 %
b0 &
b1 '
b1 (
#31
b0000000 !
b1101 "
b000 #
b1 $
b10101110 %
b0 &
b1 '
b0 (
#32
b0000000 !
b1010 "
b000 #
b1 $
b10101111 %
b0 &
b0 '
b1 (
#33
b0000000 !
b1010 "
b000 #
b1 $
b10101111 %
b0 &
b0 '
b0 (
#34
b0000000 !
b1110 "
b000 #
b1 $
b10101111 %
b0 &
b1 '
b1 (
#35
b0000000 !
b1110 "
b000 #
b1 $
b10101111 %
b0 &
b1 '
b0 (
#36
b0000000 !
b1010 "
b000 #
b1 $
b10110000 %
b0 &
b0 '
b1 (
#37
b0000000 !
b1010 "
b000 #
b1 $
b10110000 %
b0 &
b0 '
b0 (
#38
b0000000 !
b1111 "
b000 #
b1 $
b10110000 %
b0 &
b1 '
b1 (
#39
b0000000 !
b1111 "
b000 #
b1 $
b10110000 %
b0 &
b1 '
b0 (
#40
b0000000 !
b1011 "
b000 #
b1 $
b10110001 %
b0 &
b0 '
b1 (
#41
b0000000 !
b1011 "
b000 #
b1 $
b10110001 %
b0 &
b0 '
b0 (
#42
b0000000 !
b0000 "
b000 #
b1 $
b10110001 %
b0 &
b1 '
b1 (
#43
b0000000 !
b0000 "
b000 #
b1 $
b10110001 %
b0 &
b1 '
b0 (
#44
b0000000 !
b1011 "
b000 #
b1 $
b10110010 %
b0 &
b0 '
b1 (
#45
b0000000 !
b1011 "
b000 #
b1 $
b10110010 %
b0 &
b0 '
b0 (
#46
b0000000 !
b0001 "
b000 #
b1 $
b10110010 %
b0 &
b1 '
b1 (
#47
b0000000 !
b0001 "
b000 #
b1 $
b10110010 %
b0 &
b1 '
b0 (
#48
b0000000 !
b1011 "
b000 #
b1 $
b10110011 %
b0 &
b0 '
b1 (
#49
b0000000 !
b1011 "
b000 #
b1 $
b10110011 %
b0 &
b0 '
b0 (
#50
b0000000 !
b0010 "
b000 #
b1 $
b10110011 %
b0 &
b1 '
b1 (
#51
b0000000 !
b0010 "
b000 #
b1 $
b10110011 %
b0 &
b1 '
b0 (
#52
b0000000 !
b1011 "
b000 #
b1 $
b10110100 %
b0 &
b0 '
b1 (
#53
b0000000 !
b1011 "
b000 #
b1 $
b10110100 %
b0 &
b0 '
b0 (
#54
b0000000 !
b0011 "
b000 #
b1 $
b10110100 %
b0 &
b1 '
b1 (
#55
b0000000 !
b0011 "
b000 #
b1 $
b10110100 %
b0 &
b1 '
b0 (
#56
b0000000 !
b1011 "
b000 #
b1 $
b10110101 %
b0 &
b0 '
b1 (
#57
b0000000 !
b1011 "
b000 #
b1 $
b10110101 %
b0 &
b0 '
b0 (
#58
b0000000 !
b0100 "
b000 #
b1 $
b10110101 %
b0 &
b1 '
b1 (
#59
b0000000 !
b0100 "
b000 #
b1 $
b10110101 %
b0 &
b1 '
b0 (
#60
b0000000 !
b1011 "
b000 #
b1 $
b10110110 %
b0 &
b0 '
b1 (
#61
b0000000 !
b1011 "
b000 #
b1 $
b10110110 %
b0 &
b0 '
b0 (
#62
b0000000 !
b0101 "
b000 #
b1 $
b10110110 %
b0 &
b1 '
b1 (
#63
b0000000 !
b0101 "
b000 #
b1 $
b10110110 %
b0 &
b1 '
b0 (
#64
b0000000 !
b1011 "
b000 #
b1 $
b10110111 %
b0 &
b0 '
b1 (
#65
b0000000 !
b1011 "
b000 #
b1 $
b10110111 %
b0 &
b0 '
b0 (
#66
b0000000 !
b0110 "
b000 #
b1 $
b10110111 %
b0 &
b1 '
b1 (
#67
b0000000 !
b0110 "
b000 #
b1 $
b10110111 %
b0 &
b1 '
b0 (
#68
b0000000 !
b1011 "
b000 #
b1 $
b10111000 %
b0 &
b0 '
b1 (
#69
b0000000 !
b1011 "
b000 #
b1 $
b10111000 %
b0 &
b0 '
b0 (
#70
b0000000 !
b0111 "
b000 #
b1 $
b10111000 %
b0 &
b1 '
b1 (
#71
b0000000 !
b0111 "
b000 #
b1 $
b10111000 %
b0 &
b1 '
b0 (
#72
b0000000 !
b1011 "
b000 #
b1 $
b10111001 %
b0 &
b0 '
b1 (
#73
b0000000 !
b1011 "
b000 #
b1 $
b10111001 %
b0 &
b0 '
b0 (
#74
b0000000 !
b1000 "
b000 #
b1 $
b10111001 %
b0 &
b1 '
b1 (
#75
b0000000 !
b1000 "
b000 #
b1 $
b10111001 %
b0 &
b1 '
b0 (
#76
b0000000 !
b1011 "
b000 #
b1 $
b10111010 %
b0 &
b0 '
b1 (
#77
b0000000 !
b1011 "
b000 #
b1 $
b10111010 %
b0 &
b0 '
b0 (
#78
b0000000 !
b1001 "
b000 #
b1 $
b10111010 %
b0 &
b1 '
b1 (
#79
b0000000 !
b1001 "
b000 #
b1 $
b10111010 %
b0 &
b1 '
b0 (
#80
b0000000 !
b1011 "
b000 #
b1 $
b10111011 %
b0 &
b0 '
b1 (
#81
b0000000 !
b1011 "
b000 #
b1 $
b10111011 %
b0 &
b0 '
b0 (
#82
b0000000 !
b1010 "
b000 #
b1 $
b10111011 %
b0 &
b1 '
b1 (
#83
b0000000 !
b1010 "
b000 #
b1 $
b10111011 %
b0 &
b1 '
b0 (
#84
b0000000 !
b1011 "
b000 #
b1 $
b10111100 %
b0 &
b0 '
b1 (
#85
b0000000 !
b1011 "
b000 #
b1 $
b10111100 %
b0 &
b0 '
b0 (
#86
b0000000 !
b1011 "
b000 #
b1 $
b10111100 %
b0 &
b1 '
b1 (
#87
b0000000 !
b1011 "
b000 #
b1 $
b10111100 %
b0 &
b1 '
b0 (
#88
b0000000 !
b1011 "
b000 #
b1 $
b10111101 %
b0 &
b0 '
b1 (
#89
b0000000 !
b1011 "
b000 #
b1 $
b10111101 %
b0 &
b0 '
b0 (
#90
b0000000 !
b1100 "
b000 #
b1 $
b10111101 %
b0 &
b1 '
b1 (
#91
b0000000 !
b1100 "
b000 #
b1 $
b10111101 %
b0 &
b1 '
b0 (
#92
b0000000 !
b1011 "
b000 #
b1 $
b10111110 %
b0 &
b0 '
b1 (
#93
b0000000 !
b1011 "
b000 #
b1 $
b10111110 %
b0 &
b0 '
b0 (
#94
b0000000 !
b1101 "
b000 #
b1 $
b10111110 %
b0 &
b1 '
b1 (
#95
b0000000 !
b1101 "
b000 #
b1 $
b10111110 %
b0 &
b1 '
b0 (
#96
b0000000 !
b1011 "
b000 #
b1 $
b10111111 %
b0 &
b0 '
b1 (
#97
b0000000 !
b1011 "
b000 #
b1 $
b10111111 %
b0 &
b0 '
b0 (
#98
b0000000 !
b1110 "
b000 #
b1 $
b10111111 %
b0 &
b1 '
b1 (
#99
b0000000 !
b1110 "
b000 #
b1 $
b10111111 %
b0 &
b1 '
b0 (
#100
b0000000 !
b1011 "
b000 #
b1 $
b11000000 %
b0 &
b0 '
b1 (
#101
b0000000 !
b1011 "
b000 #
b1 $
b11000000 %
b0 &
b0 '
b0 (
#102
b0000000 !
b1111 "
b000 #
b1 $
b11000000 %
b0 &
b1 '
b1 (
#103
b0000000 !
b1111 "
b000 #
b1 $
b11000000 %
b0 &
b1 '
b0 (
#104
b0000000 !
b1100 "
b000 #
b1 $
b11000001 %
b0 &
b0 '
b1 (
#105
b0000000 !
b1100 "
b000 #
b1 $
b11000001 %
b0 &
b0 '
b0 (
#106
b0000000 !
b0000 "
b000 #
b1 $
b11000001 %
b0 &
b1 '
b1 (
#107
b0000000 !
b0000 "
b000 #
b1 $
b11000001 %
b0 &
b1 '
b0 (
#108
b0000000 !
b1100 "
b000 #
b1 $
b11000010 %
b0 &
b0 '
b1 (
#109
b0000000 !
b1100 "
b000 #
b1 $
b11000010 %
b0 &
b0 '
b0 (
#110
b0000000 !
b0001 "
b000 #
b1 $
b11000010 %
b0 &
b1 '
b1 (
#111
b0000000 !
b0001 "
b000 #
b1 $
b11000010 %
b0 &
b1 '
b0 (
#112
b0000000 !
b1100 "
b000 #
b1 $
b11000011 %
b0 &
b0 '
b1 (
#113
b0000000 !
b1100 "
b000 #
b1 $
b11000011 %
b0 &
b0 '
b0 (
#114
b0000000 !
b0010 "
b000 #
b1 $
b11000011 %
b0 &
b1 '
b1 (
#115
b0000000 !
b0010 "
b000 #
b1 $
b11000011 %
b0 &
b1 '
b0 (
#116
b0000000 !
b1100 "
b000 #
b1 $
b11000100 %
b0 &
b0 '
b1 (
#117
b0000000 !
b1100 "
b000 #
b1 $
b11000100 %
b0 &
b0 '
b0 (
#118
b0000000 !
b0011 "
b000 #
b1 $
b11000100 %
b0 &
b1 '
b1 (
#119
b0000000 !
b0011 "
b000 #
b1 $
b11000100 %
b0 &
b1 '
b0 (
#120
b0000000 !
b1100 "
b000 #
b1 $
b11000101 %
b0 &
b0 '
b1 (
#121
b0000000 !
b1100 "
b000 #
b1 $
b11000101 %
b0 &
b0 '
b0 (
#122
b0000000 !
b0100 "
b000 #
b1 $
b11000101 %
b0 &
b1 '
b1 (
#123
b0000000 !
b0100 "
b000 #
b1 $
b11000101 %
b0 &
b1 '
b0 (
#124
b0000000 !
b1100 "
b000 #
b1 $
b11000110 %
b0 &
b0 '
b1 (
#125
b0000000 !
b1100 "
b000 #
b1 $
b11000110 %
b0 &
b0 '
b0 (
#126
b0000000 !
b0101 "
b000 #
b1 $
b11000110 %
b0 &
b1 '
b1 (
#127
b0000000 !
b0101 "
b000 #
b1 $
b11000110 %
b0 &
b1 '
b0 (
#128
b0000000 !
b1100 "
b000 #
b1 $
b11000111 %
b0 &
b0 '
b1 (
#129
b0000000 !
b1100 "
b000 #
b1 $
b11000111 %
b0 &
b0 '
b0 (
#130
b0000000 !
b0110 "
b000 #
b1 $
b11000111 %
b0 &
b1 '
b1 (
#131
b0000000 !
b0110 "
b000 #
b1 $
b11000111 %
b0 &
b1 '
b0 (
#132
b0000000 !
b1100 "
b000 #
b1 $
b11001000 %
b0 &
b0 '
b1 (
#133
b0000000 !
b1100 "
b000 #
b1 $
b11001000 %
b0 &
b0 '
b0 (
#134
b0000000 !
b0111 "
b000 #
b1 $
b11001000 %
b0 &
b1 '
b1 (
#135
b0000000 !
b0111 "
b000 #
b1 $
b11001000 %
b0 &
b1 '
b0 (
#136
b0000000 !
b1100 "
b000 #
b1 $
b11001001 %
b0 &
b0 '
b1 (
#137
b0000000 !
b1100 "
b000 #
b1 $
b11001001 %
b0 &
b0 '
b0 (
#138
b0000000 !
b1000 "
b000 #
b1 $
b11001001 %
b0 &
b1 '
b1 (
#139
b0000000 !
b1000 "
b000 #
b1 $
b11001001 %
b0 &
b1 '
b0 (
#140
b0000000 !
b1100 "
b000 #
b1 $
b11001010 %
b0 &
b0 '
b1 (
#141
b0000000 !
b1100 "
b000 #
b1 $
b11001010 %
b0 &
b0 '
b0 (
#142
b0000000 !
b1001 "
b000 #
b1 $
b11001010 %
b0 &
b1 '
b1 (
#143
b0000000 !
b1001 "
b000 #
b1 $
b11001010 %
b0 &
b1 '
b0 (
#144
b0000000 !
b1100 "
b000 #
b1 $
b11001011 %
b0 &
b0 '
b1 (
#145
b0000000 !
b1100 "
b000 #
b1 $
b11001011 %
b0 &
b0 '
b0 (
#146
b0000000 !
b1010 "
b000 #
b1 $
b11001011 %
b0 &
b1 '
b1 (
#147
b0000000 !
b1010 "
b000 #
b1 $
b11001011 %
b0 &
b1 '
b0 (
#148
b0000000 !
b1100 "
b000 #
b1 $
b11001100 %
b0 &
b0 '
b1 (
#149
b0000000 !
b1100 "
b000 #
b1 $
b11001100 %
b0 &
b0 '
b0 (
#150
b0000000 !
b1011 "
b000 #
b1 $
b11001100 %
b0 &
b1 '
b1 (
#151
b0000000 !
b1011 "
b000 #
b1 $
b11001100 %
b0 &
b1 '
b0 (
#152
b0000000 !
b1100 "
b000 #
b1 $
b11001101 %
b0 &
b0 '
b1 (
#153
b0000000 !
b1100 "
b000 #
b1 $
b11001101 %
b0 &
b0 '
b0 (
#154
b0000000 !
b1100 "
b000 #
b1 $
b11001101 %
b0 &
b1 '
b1 (
#155
b0000000 !
b1100 "
b000 #
b1 $
b11001101 %
b0 &
b1 '
b0 (
#156
b0000000 !
b1100 "
b000 #
b1 $
b11001110 %
b0 &
b0 '
b1 (
#157
b0000000 !
b1100 "
b000 #
b1 $
b11001110 %
b0 &
b0 '
b0 (
#158
b0000000 !
b1101 "
b000 #
b1 $
b11001110 %
b0 &
b1 '
b1 (
#159
b0000000 !
b1101 "
b000 #
b1 $
b11001110 %
b0 &
b1 '
b0 (
#160
b0000000 !
b1100 "
b000 #
b1 $
b11001111 %
b0 &
b0 '
b1 (
#161
b0000000 !
b1100 "
b000 #
b1 $
b11001111 %
b0 &
b0 '
b0 (
#162
b0000000 !
b1110 "
b000 #
b1 $
b11001111 %
b0 &
b1 '
b1 (
#163
b0000000 !
b1110 "
b000 #
b1 $
b11001111 %
b0 &
b1 '
b0 (
#164
b0000000 !
b1100 "
b000 #
b1 $
b11010000 %
b0 &
b0 '
b1 (
#165
b0000000 !
b1100 "
b000 #
b1 $
b11010000 %
b0 &
b0 '
b0 (
#166
b0000000 !
b1111 "
b000 #
b1 $
b11010000 %
b0 &
b1 '
b1 (
#167
b0000000 !
b1111 "
b000 #
b1 $
b11010000 %
b0 &
b1 '
b0 (
#168
b0000000 !
b1101 "
b000 #
b1 $
b11010001 %
b0 &
b0 '
b1 (
#169
b0000000 !
b1101 "
b000 #
b1 $
b11010001 %
b0 &
b0 '
b0 (
#170
b0000000 !
b0000 "
b000 #
b1 $
b11010001 %
b0 &
b1 '
b1 (
#171
b0000000 !
b0000 "
b000 #
b1 $
b11010001 %
b0 &
b1 '
b0 (
#172
b0000000 !
b1101 "
b000 #
b1 $
b11010010 %
b0 &
b0 '
b1 (
#173
b0000000 !
b1101 "
b000 #
b1 $
b11010010 %
b0 &
b0 '
b0 (
#174
b0000000 !
b0001 "
b000 #
b1 $
b11010010 %
b0 &
b1 '
b1 (
#175
b0000000 !
b0001 "
b000 #
b1 $
b11010010 %
b0 &
b1 '
b0 (
#176
b0000000 !
b1101 "
b000 #
b1 $
b11010011 %
b0 &
b0 '
b1 (
#177
b0000000 !
b1101 "
b000 #
b1 $
b11010011 %
b0 &
b0 '
b0 (
#178
b0000000 !
b0010 "
b000 #
b1 $
b11010011 %
b0 &
b1 '
b1 (
#179
b0000000 !
b0010 "
b000 #
b1 $
b11010011 %
b0 &
b1 '
b0 (
#180
b0000000 !
b1101 "
b000 #
b1 $
b11010100 %
b0 &
b0 '
b1 (
#181
b0000000 !
b1101 "
b000 #
b1 $
b11010100 %
b0 &
b0 '
b0 (
#182
b0000000 !
b0011 "
b000 #
b1 $
b11010100 %
b0 &
b1 '
b1 (
#183
b0000000 !
b0011 "
b000 #
b1 $
b11010100 %
b0 &
b1 '
b0 (
#184
b0000000 !
b1101 "
b000 #
b1 $
b11010101 %
b0 &
b0 '
b1 (
#185
b0000000 !
b1101 "
b000 #
b1 $
b11010101 %
b0 &
b0 '
b0 (
#186
b0000000 !
b0100 "
b000 #
b1 $
b11010101 %
b0 &
b1 '
b1 (
#187
b0000000 !
b0100 "
b000 #
b1 $
b11010101 %
b0 &
b1 '
b0 (
#188
b0000000 !
b1101 "
b000 #
b1 $
b11010110 %
b0 &
b0 '
b1 (
#189
b0000000 !
b1101 "
b000 #
b1 $
b11010110 %
b0 &
b0 '
b0 (
#190
b0000000 !
b0101 "
b000 #
b1 $
b11010110 %
b0 &
b1 '
b1 (
#191
b0000000 !
b0101 "
b000 #
b1 $
b11010110 %
b0 &
b1 '
b0 (
#192
b0000000 !
b1101 "
b000 #
b1 $
b11010111 %
b0 &
b0 '
b1 (
#193
b0000000 !
b1101 "
b000 #
b1 $
b11010111 %
b0 &
b0 '
b0 (
#194
b0000000 !
b0110 "
b000 #
b1 $
b11010111 %
b0 &
b1 '
b1 (
#195
b0000000 !
b0110 "
b000 #
b1 $
b11010111 %
b0 &
b1 '
b0 (
#196
b0000000 !
b1101 "
b000 #
b1 $
b11011000 %
b0 &
b0 '
b1 (
#197
b0000000 !
b1101 "
b000 #
b1 $
b11011000 %
b0 &
b0 '
b0 (
#198
b0000000 !
b0111 "
b000 #
b1 $
b11011000 %
b0 &
b1 '
b1 (
#199
b0000000 !
b0111 "
b000 #
b1 $
b11011000 %
b0 &
b1 '
b0 (
#200
b0000000 !
b1101 "
b000 #
b1 $
b11011001 %
b0 &
b0 '
b1 (
#201
b0000000 !
b1101 "
b000 #
b1 $
b11011001 %
b0 &
b0 '
b0 (
#202
b0000000 !
b1000 "
b000 #
b1 $
b11011001 %
b0 &
b1 '
b1 (
#203
b0000000 !
b1000 "
b000 #
b1 $
b11011001 %
b0 &
b1 '
b0 (
#204
b0000000 !
b1101 "
b000 #
b1 $
b11011010 %
b0 &
b0 '
b1 (
#205
b0000000 !
b1101 "
b000 #
b1 $
b11011010 %
b0 &
b0 '
b0 (
#206
b0000000 !
b1001 "
b000 #
b1 $
b11011010 %
b0 &
b1 '
b1 (
#207
b0000000 !
b1001 "
b000 #
b1 $
b11011010 %
b0 &
b1 '
b0 (
#208
b0000000 !
b1101 "
b000 #
b1 $
b11011011 %
b0 &
b0 '
b1 (
#209
b0000000 !
b1101 "
b000 #
b1 $
b11011011 %
b0 &
b0 '
b0 (
#210
b0000000 !
b1010 "
b000 #
b1 $
b11011011 %
b0 &
b1 '
b1 (
#211
b0000000 !
b1010 "
b000 #
b1 $
b11011011 %
b0 &
b1 '
b0 (
#212
b0000000 !
b1101 "
b000 #
b1 $
b11011100 %
b0 &
b0 '
b1 (
#213
b0000000 !
b1101 "
b000 #
b1 $
b11011100 %
b0 &
b0 '
b0 (
#214
b0000000 !
b1011 "
b000 #
b1 $
b11011100 %
b0 &
b1 '
b1 (
#215
b0000000 !
b1011 "
b000 #
b1 $
b11011100 %
b0 &
b1 '
b0 (
#216
b0000000 !
b1101 "
b000 #
b1 $
b11011101 %
b0 &
b0 '
b1 (
#217
b0000000 !
b1101 "
b000 #
b1 $
b11011101 %
b0 &
b0 '
b0 (
#218
b0000000 !
b1100 "
b000 #
b1 $
b11011101 %
b0 &
b1 '
b1 (
#219
b0000000 !
b1100 "
b000 #
b1 $
b11011101 %
b0 &
b1 '
b0 (
#220
b0000000 !
b1101 "
b000 #
b1 $
b11011110 %
b0 &
b0 '
b1 (
#221
b0000000 !
b1101 "
b000 #
b1 $
b11011110 %
b0 &
b0 '
b0 (
#222
b0000000 !
b1101 "
b000 #
b1 $
b11011110 %
b0 &
b1 '
b1 (
#223
b0000000 !
b1101 "
b000 #
b1 $
b11011110 %
b0 &
b1 '
b0 (
#224
b0000000 !
b1101 "
b000 #
b1 $
b11011111 %
b0 &
b0 '
b1 (
#225
b0000000 !
b1101 "
b000 #
b1 $
b11011111 %
b0 &
b0 '
b0 (
#226
b0000000 !
b1110 "
b000 #
b1 $
b11011111 %
b0 &
b1 '
b1 (
#227
b0000000 !
b1110 "
b000 #
b1 $
b11011111 %
b0 &
b1 '
b0 (
#228
b0000000 !
b1101 "
b000 #
b1 $
b11100000 %
b0 &
b0 '
b1 (
#229
b0000000 !
b1101 "
b000 #
b1 $
b11100000 %
b0 &
b0 '
b0 (
#230
b0000000 !
b1111 "
b000 #
b1 $
b11100000 %
b0 &
b1 '
b1 (
#231
b0000000 !
b1111 "
b000 #
b1 $
b11100000 %
b0 &
b1 '
b0 (
#232
b0000000 !
b1110 "
b000 #
b1 $
b11100001 %
b0 &
b0 '
b1 (
#233
b0000000 !
b1110 "
b000 #
b1 $
b11100001 %
b0 &
b0 '
b0 (
#234
b0000000 !
b0000 "
b000 #
b1 $
b11100001 %
b0 &
b1 '
b1 (
#235
b0000000 !
b0000 "
b000 #
b1 $
b11100001 %
b0 &
b1 '
b0 (
#236
b0000000 !
b1110 "
b000 #
b1 $
b11100010 %
b0 &
b0 '
b1 (
#237
b0000000 !
b1110 "
b000 #
b1 $
b11100010 %
b0 &
b0 '
b0 (
#238
b0000000 !
b0001 "
b000 #
b1 $
b11100010 %
b0 &
b1 '
b1 (
#239
b0000000 !
b0001 "
b000 #
b1 $
b11100010 %
b0 &
b1 '
b0 (
#240
b0000000 !
b1110 "
b000 #
b1 $
b11100011 %
b0 &
b0 '
b1 (
#241
b0000000 !
b1110 "
b000 #
b1 $
b11100011 %
b0 &
b0 '
b0 (
#242
b0000000 !
b0010 "
b000 #
b1 $
b11100011 %
b0 &
b1 '
b1 (
#243
b0000000 !
b0010 "
b000 #
b1 $
b11100011 %
b0 &
b1 '
b0 (
#244
b0000000 !
b1110 "
b000 #
b1 $
b11100100 %
b0 &
b0 '
b1 (
#245
b0000000 !
b1110 "
b000 #
b1 $
b11100100 %
b0 &
b0 '
b0 (
#246
b0000000 !
b0011 "
b000 #
b1 $
b11100100 %
b0 &
b1 '
b1 (
#247
b0000000 !
b0011 "
b000 #
b1 $
b11100100 %
b0 &
b1 '
b0 (
#248
b0000000 !
b1110 "
b000 #
b1 $
b11100101 %
b0 &
b0 '
b1 (
#249
b0000000 !
b1110 "
b000 #
b1 $
b11100101 %
b0 &
b0 '
b0 (
#250
b0000000 !
b0100 "
b000 #
b1 $
b11100101 %
b0 &
b1 '
b1 (
#251
b0000000 !
b0100 "
b000 #
b1 $
b11100101 %
b0 &
b1 '
b0 (
#252
b0000000 !
b1110 "
b000 #
b1 $
b11100110 %
b0 &
b0 '
b1 (
#253
b0000000 !
b1110 "
b000 #
b1 $
b11100110 %
b0 &
b0 '
b0 (
#254
b0000000 !
b0101 "
b000 #
b1 $
b11100110 %
b0 &
b1 '
b1 (
#255
b0000000 !
b0101 "
b000 #
b1 $
b11100110 %
b0 &
b1 '
b0 (
#256
b0000000 !
b1110 "
b000 #
b1 $
b11100111 %
b0 &
b0 '
b1 (
#257
b0000000 !
b1110 "
b000 #
b1 $
b11100111 %
b0 &
b0 '
b0 (
#258
b0000000 !
b0110 "
b000 #
b1 $
b11100111 %
b0 &
b1 '
b1 (
#259
b0000000 !
b0110 "
b000 #
b1 $
b11100111 %
b0 &
b1 '
b0 (
#260
b0000000 !
b1110 "
b000 #
b1 $
b11101000 %
b0 &
b0 '
b1 (
#261
b0000000 !
b1110 "
b000 #
b1 $
b11101000 %
b0 &
b0 '
b0 (
#262
b0000000 !
b0111 "
b000 #
b1 $
b11101000 %
b0 &
b1 '
b1 (
#263
b0000000 !
b0111 "
b000 #
b1 $
b11101000 %
b0 &
b1 '
b0 (
#264
b0000000 !
b1110 "
b000 #
b1 $
b11101001 %
b0 &
b0 '
b1 (
#265
b0000000 !
b1110 "
b000 #
b1 $
b11101001 %
b0 &
b0 '
b0 (
#266
b0000000 !
b1000 "
b000 #
b1 $
b11101001 %
b0 &
b1 '
b1 (
#267
b0000000 !
b1000 "
b000 #
b1 $
b11101001 %
b0 &
b1 '
b0 (
#268
b0000000 !
b1110 "
b000 #
b1 $
b11101010 %
b0 &
b0 '
b1 (
#269
b0000000 !
b1110 "
b000 #
b1 $
b11101010 %
b0 &
b0 '
b0 (
#270
b0000000 !
b1001 "
b000 #
b1 $
b11101010 %
b0 &
b1 '
b1 (
#271
b0000000 !
b1001 "
b000 #
b1 $
b11101010 %
b0 &
b1 '
b0 (
#272
b0000000 !
b1110 "
b000 #
b1 $
b11101011 %
b0 &
b0 '
b1 (
#273
b0000000 !
b1110 "
b000 #
b1 $
b11101011 %
b0 &
b0 '
b0 (
#274
b0000000 !
b1010 "
b000 #
b1 $
b11101011 %
b0 &
b1 '
b1 (
#275
b0000000 !
b1010 "
b000 #
b1 $
b11101011 %
b0 &
b1 '
b0 (
#276
b0000000 !
b1110 "
b000 #
b1 $
b11101100 %
b0 &
b0 '
b1 (
#277
b0000000 !
b1110 "
b000 #
b1 $
b11101100 %
b0 &
b0 '
b0 (
#278
b0000000 !
b1011 "
b000 #
b1 $
b11101100 %
b0 &
b1 '
b1 (
#279
b0000000 !
b1011 "
b000 #
b1 $
b11101100 %
b0 &
b1 '
b0 (
#280
b0000000 !
b1110 "
b000 #
b1 $
b11101101 %
b0 &
b0 '
b1 (
#281
b0000000 !
b1110 "
b000 #
b1 $
b11101101 %
b0 &
b0 '
b0 (
#282
b0000000 !
b1100 "
b000 #
b1 $
b11101101 %
b0 &
b1 '
b1 (
#283
b0000000 !
b1100 "
b000 #
b1 $
b11101101 %
b0 &
b1 '
b0 (
#284
b0000000 !
b1110 "
b000 #
b1 $
b11101110 %
b0 &
b0 '
b1 (
#285
b0000000 !
b1110 "
b000 #
b1 $
b11101110 %
b0 &
b0 '
b0 (
#286
b0000000 !
b1101 "
b000 #
b1 $
b11101110 %
b0 &
b1 '
b1 (
#287
b0000000 !
b1101 "
b000 #
b1 $
b11101110 %
b0 &
b1 '
b0 (
#288
b0000000 !
b1110 "
b000 #
b1 $
b11101111 %
b0 &
b0 '
b1 (
#289
b0000000 !
b1110 "
b000 #
b1 $
b11101111 %
b0 &
b0 '
b0 (
#290
b0000000 !
b1110 "
b000 #
b1 $
b11101111 %
b0 &
b1 '
b1 (
#291
b0000000 !
b1110 "
b000 #
b1 $
b11101111 %
b0 &
b1 '
b0 (
#292
b0000000 !
b1110 "
b000 #
b1 $
b11110000 %
b0 &
b0 '
b1 (
#293
b0000000 !
b1110 "
b000 #
b1 $
b11110000 %
b0 &
b0 '
b0 (
#294
b0000000 !
b1111 "
b000 #
b1 $
b11110000 %
b0 &
b1 '
b1 (
#295
b0000000 !
b1111 "
b000 #
b1 $
b11110000 %
b0 &
b1 '
b0 (
#296
b0000000 !
b1111 "
b000 #
b1 $
b11110001 %
b0 &
b0 '
b1 (
#297
b0000000 !
b1111 "
b000 #
b1 $
b11110001 %
b0 &
b0 '
b0 (
#298
b0000000 !
b0000 "
b000 #
b1 $
b11110001 %
b0 &
b1 '
b1 (
#299
b0000000 !
b0000 "
b000 #
b1 $
b11110001 %
b0 &
b1 '
b0 (
#300
b0000000 !
b1111 "
b000 #
b1 $
b11110010 %
b0 &
b0 '
b1 (
#301
b0000000 !
b1111 "
b000 #
b1 $
b11110010 %
b0 &
b0 '
b0 (
#302
b0000000 !
b0001 "
b000 #
b1 $
b11110010 %
b0 &
b1 '
b1 (
#303
b0000000 !
b0001 "
b000 #
b1 $
b11110010 %
b0 &
b1 '
b0 (
#304
b0000000 !
b1111 "
b000 #
b1 $
b11110011 %
b0 &
b0 '
b1 (
#305
b0000000 !
b1111 "
b000 #
b1 $
b11110011 %
b0 &
b0 '
b0 (
